<?xml version="1.0" encoding="UTF-8" standalone="no"?>
<svg
   xmlns:i="http://ns.adobe.com/AdobeIllustrator/10.0/"
   xmlns:dc="http://purl.org/dc/elements/1.1/"
   xmlns:cc="http://creativecommons.org/ns#"
   xmlns:rdf="http://www.w3.org/1999/02/22-rdf-syntax-ns#"
   xmlns:svg="http://www.w3.org/2000/svg"
   xmlns="http://www.w3.org/2000/svg"
   xmlns:sodipodi="http://sodipodi.sourceforge.net/DTD/sodipodi-0.dtd"
   xmlns:inkscape="http://www.inkscape.org/namespaces/inkscape"
   version="1.1"
   x="0px"
   y="0px"
   viewBox="0 0 100 125"
   style="enable-background:new 0 0 100 100;"
   xml:space="preserve"
   id="svg16"
   sodipodi:docname="video.svg"
   inkscape:version="0.92.3 (2405546, 2018-03-11)"><metadata
     id="metadata22"><rdf:RDF><cc:Work
         rdf:about=""><dc:format>image/svg+xml</dc:format><dc:type
           rdf:resource="http://purl.org/dc/dcmitype/StillImage" /></cc:Work></rdf:RDF></metadata><defs
     id="defs20" /><sodipodi:namedview
     pagecolor="#ffffff"
     bordercolor="#666666"
     borderopacity="1"
     objecttolerance="10"
     gridtolerance="10"
     guidetolerance="10"
     inkscape:pageopacity="0"
     inkscape:pageshadow="2"
     inkscape:window-width="640"
     inkscape:window-height="480"
     id="namedview18"
     showgrid="false"
     inkscape:zoom="1.888"
     inkscape:cx="50"
     inkscape:cy="62.5"
     inkscape:window-x="0"
     inkscape:window-y="0"
     inkscape:window-maximized="0"
     inkscape:current-layer="svg16" /><switch
     id="switch10"><foreignObject
       requiredExtensions="http://ns.adobe.com/AdobeIllustrator/10.0/"
       x="0"
       y="0"
       width="1"
       height="1" /><g
       i:extraneous="self"
       id="g8"><g
         id="g6"><path
           d="M90.5,10.1H9.5c-3.9,0-7,3.2-7,7v65.8c0,3.9,3.2,7,7,7h80.9c3.9,0,7-3.2,7-7V17.1C97.5,13.2,94.3,10.1,90.5,10.1z      M32.5,17.3c1.7,0,3,1.4,3,3c0,1.7-1.4,3-3,3s-3-1.4-3-3C29.5,18.6,30.8,17.3,32.5,17.3z M23.3,17.3c1.7,0,3,1.4,3,3     c0,1.7-1.4,3-3,3c-1.7,0-3-1.4-3-3C20.3,18.6,21.7,17.3,23.3,17.3z M14.1,17.3c1.7,0,3,1.4,3,3c0,1.7-1.4,3-3,3c-1.7,0-3-1.4-3-3     C11.1,18.6,12.5,17.3,14.1,17.3z M88.4,80.3c0,0.3-0.2,0.5-0.5,0.5H12.1c-0.3,0-0.5-0.2-0.5-0.5V30.6h76.8V80.3z"
           id="path2" /><path
           d="M50,72.3c9.1,0,16.4-7.3,16.4-16.4c0-9.1-7.3-16.4-16.4-16.4c-9.1,0-16.4,7.3-16.4,16.4C33.6,64.9,40.9,72.3,50,72.3z      M45.4,49.9c0-0.9,1-1.5,1.8-1l8.9,5.9c0.7,0.5,0.7,1.5,0,1.9l-8.9,5.9c-0.8,0.5-1.8,0-1.8-1V49.9z"
           id="path4" /></g></g></switch></svg>